<?xml version="1.0" encoding="UTF-8"?>
<svg width="20px" height="20px" viewBox="0 0 20 20" version="1.1" xmlns="http://www.w3.org/2000/svg" xmlns:xlink="http://www.w3.org/1999/xlink">
    <title>charts</title>
    <g id="Desktop" stroke="none" stroke-width="1" fill="none" fill-rule="evenodd">
        <g id="desktop---input-active" transform="translate(-60.000000, -355.000000)" fill="#A9C8E8" fill-rule="nonzero">
            <g id="Menu" transform="translate(40.000000, 160.000000)">
                <g id="Menu-/-slection-Copy-3" transform="translate(0.000000, 180.000000)">
                    <g id="icone-mockup-07" transform="translate(20.000000, 15.000000)">
                        <path d="M10,10 L20,10 C20,15.486 15.486,20 10,20 C4.514,20 0,15.486 0,10 C0,4.514 4.514,0 10,0 L10,10 Z" id="Path"></path>
                    </g>
                </g>
            </g>
        </g>
    </g>
</svg>